Expanding-the-Toolkit-for-Soil-Scientists.utf8
…
---
class: bodySlide
<br>
## {aqp} S4 methods (basics)

### `horizons`

```r
horizons(sp4) # "horizon" data
```

```
## # A tibble: 30 x 13
##    id       name    top bottom     K    Mg    Ca CEC_7  sand  silt  clay    CF hzID 
##    <chr>    <chr> <int>  <int> <dbl> <dbl> <dbl> <dbl> <int> <int> <int> <dbl> <chr>
##  1 colusa   A         0      3   0.3  25.7   9    23      46    33    21  0.12 1    
##  2 colusa   ABt       3      8   0.2  23.7   5.6  21.4    42    31    27  0.27 2    
##  3 colusa   Bt1       8     30   0.1  23.2   1.9  23.7    40    28    32  0.27 3    
##  4 colusa   Bt2      30     42   0.1  44.3   0.3  43      27    18    55  0.16 4    
##  5 glenn    A         0      9   0.2  21.9   4.4  18.8    54    20    25  0.55 5    
##  6 glenn    Bt        9     34   0.3  18.9   4.5  27.5    49    18    34  0.84 6    
##  7 kings    A         0      4   0.2  12.1   1.4  23.7    43    55     3  0.5  7    
##  8 kings    Bt1       4     13   0.6  12.1   7    18      36    49    15  0.75 8    
##  9 kings    Bt2      13     40   0.8  17.7   4.4  20      27    45    27  0.67 9    
## 10 mariposa A         0      3   0.6  28.3   5.8  29.3    42    26    32  0.25 10   
## # … with 20 more rows
```
…
```r
*horizons(sp4) <- data.frame(id = c("mariposa","mendocino"),
*                           hz_grp = "group")
```

```r
horizons(sp4)[,c(idname(sp4),"hz_grp")]
```

```
## # A tibble: 30 x 2
##    id       hz_grp
##    <chr>    <chr> 
##  1 colusa   <NA>  
##  2 colusa   <NA>  
##  3 colusa   <NA>  
##  4 colusa   <NA>  
##  5 glenn    <NA>  
##  6 glenn    <NA>  
##  7 kings    <NA>  
##  8 kings    <NA>  
##  9 kings    <NA>  
## 10 mariposa group 
## # … with 20 more rows
```
…
